PROFILE: interrupts/evictions/bytes = 0/0/64
PROFILE: interrupts/evictions/bytes = 0/0/64
PROFILE: interrupts/evictions/bytes = 0/0/64
PROFILE: interrupts/evictions/bytes = 0/0/64
PROFILE: interrupts/evictions/bytes = 0/0/64
PROFILE: interrupts/evictions/bytes = 0/0/64
PROFILE: interrupts/evictions/bytes = 0/0/64
PROFILE: interrupts/evictions/bytes = 0/0/64
PROFILE: interrupts/evictions/bytes = 0/0/64
PROFILE: interrupts/evictions/bytes = 0/0/64
PROFILE: interrupts/evictions/bytes = 0/0/64
PROFILE: interrupts/evictions/bytes = 0/0/64
PROFILE: interrupts/evictions/bytes = 0/0/64
PROFILE: interrupts/evictions/bytes = 0/0/64
